Import RCTs data
…
prologue %>%
    dplyr::select(id, ends_with(".x"), ends_with(".y")) %>%
    dplyr::mutate(
        same_sex = sex.x == sex.y,
        sex = any(!same_sex, na.rm = TRUE),
        same_age = age.x == age.y,
        age = any(!same_age, na.rm = TRUE),
        same_allocation = allocation.x == allocation.y,
        allocation = any(!same_allocation, na.rm = TRUE)
    )
#> # A tibble: 473 x 13
#>    id    age.x sex.x allocation.x allocation.y age.y sex.y same_sex sex  
#>    <chr> <int> <fct> <fct>        <fct>        <int> <fct> <lgl>    <lgl>
#>  1 PRL-~    57 male  sitagliptin  sitagliptin     57 male  TRUE     FALSE
#>  2 PRL-~    48 male  conventional conventional    48 male  TRUE     FALSE
#>  3 PRL-~    75 fema~ conventional conventional    75 fema~ TRUE     FALSE
#>  4 PRL-~    76 male  conventional conventional    76 male  TRUE     FALSE
#>  5 PRL-~    68 male  sitagliptin  sitagliptin     68 male  TRUE     FALSE
#>  6 PRL-~    51 male  sitagliptin  sitagliptin     51 male  TRUE     FALSE
#>  7 PRL-~    72 male  sitagliptin  sitagliptin     72 male  TRUE     FALSE
#>  8 PRL-~    57 male  sitagliptin  sitagliptin     57 male  TRUE     FALSE
#>  9 PRL-~    69 fema~ conventional conventional    69 fema~ TRUE     FALSE
#> 10 PRL-~    66 fema~ conventional conventional    66 fema~ TRUE     FALSE
#> # ... with 463 more rows, and 4 more variables: same_age <lgl>, age <lgl>,
#> #   same_allocation <lgl>, allocation <lgl>
…
missing_fup <- select(prologue, ends_with("_24m")) %>%
        is.na()

was_analyzed <- rowSums(missing_fup) != ncol(missing_fup)

prologue[["was_analyzed"]] <- was_analyzed

prologue %>% filter(was_analyzed)
#> # A tibble: 393 x 262
#>    id    dm_treatment statin   age sex   al_sbp al_hb_a1c_jds al_max_imt
#>    <chr> <fct>        <lgl>  <int> <fct>  <int>         <dbl>      <dbl>
#>  1 PRL-~ non-pharmac~ FALSE     48 male     152           6.1       0.94
#>  2 PRL-~ non-pharmac~ TRUE      75 fema~    110           6.2       2.58
#>  3 PRL-~ pharmacolog~ TRUE      76 male     106           6.8       0.99
#>  4 PRL-~ pharmacolog~ TRUE      51 male     126           7         1   
#>  5 PRL-~ pharmacolog~ TRUE      72 male     128           6.9       1.04
#>  6 PRL-~ pharmacolog~ TRUE      57 male     148           6.5       0.87
#>  7 PRL-~ pharmacolog~ FALSE     60 male     122           7.1       0.9 
#>  8 PRL-~ non-pharmac~ TRUE      65 male     140           5.8       0.8 
#>  9 PRL-~ pharmacolog~ TRUE      65 fema~    146           5.9       0.7 
#> 10 PRL-~ pharmacolog~ TRUE      65 fema~    146           5.9       0.7 
#> # ... with 383 more rows, and 254 more variables: allocation <fct>,
#> #   x0m_right_cca_mean_imt <dbl>, x12m_right_cca_mean_imt <dbl>,
#> #   x24m_right_cca_mean_imt <dbl>, x0m_right_cca_max_imt <dbl>,
#> #   x12m_right_cca_max_imt <dbl>, x24m_right_cca_max_imt <dbl>,
#> #   x0m_right_bulb_mean_imt <dbl>, x12m_right_bulb_mean_imt <dbl>,
#> #   x24m_right_bulb_mean_imt <dbl>, x0m_right_bulb_max_imt <dbl>,
#> #   x12m_right_bulb_max_imt <dbl>, x24m_right_bulb_max_imt <dbl>,
#> #   x0m_right_ica_mean_imt <dbl>, x12m_right_ica_mean_imt <dbl>,
#> #   x24m_right_ica_mean_imt <dbl>, x0m_right_ica_max_imt <dbl>,
…
